{
  "version": "14.0.4",
  "vulnerabilities": [
    {
      "id": "d2f89a9ad6c422e47d4e0e1b180566bd344d47b3971907b3c68cc9697b173dc9",
      "category": "sast",
      "message": "Key Exchange without Entity Authentication",
      "description": "Audit the use of ssh.InsecureIgnoreHostKey\n",
      "cve": "",
      "severity": "Medium",
      "scanner": {
        "id": "semgrep",
        "name": "Semgrep"
      },
      "location": {
        "file": "foo.go",
        "start_line": 8
      },
      "identifiers": [
        {
          "type": "semgrep_id",
          "name": "gosec.G106-1",
          "value": "gosec.G106-1"
        },
        {
          "type": "cwe",
          "name": "CWE-322",
          "value": "322",
          "url": "https://cwe.mitre.org/data/definitions/322.html"
        },
        {
          "type": "gosec_rule_id",
          "name": "Gosec Rule ID G106",
          "value": "G106"
        }
      ],
      "tracking": {
        "type": "source",
        "items": [
          {
            "file": "foo.go",
            "line_start": 8,
            "line_end": 8,
            "signatures": [
              {
                "algorithm": "scope_offset",
                "value": "foo.go|foo[0]:1"
              }
            ]
          }
        ]
      }
    }
  ],
  "scan": {
    "scanner": {
      "id": "semgrep",
      "name": "Semgrep",
      "url": "https://github.com/returntocorp/semgrep",
      "vendor": {
        "name": "GitLab"
      },
      "version": "0.69.1"
    },
    "type": "sast",
    "start_time": "2021-11-03T20:33:48",
    "end_time": "2021-11-03T20:33:53",
    "status": "success"
  }
}
