{
  "version": "14.0.4",
  "vulnerabilities": [
    {
      "id": "2419849776d915e5f4e367cd31218c91ef77edcf8a23b519b16af965ceff302d",
      "category": "sast",
      "message": "Deserialization of Untrusted Data",
      "description": "Avoid using `load()`. `PyYAML.load` can create arbitrary Python\nobjects. A malicious actor could exploit this to run arbitrary\ncode. Use `safe_load()` instead.\n",
      "cve": "",
      "severity": "Critical",
      "scanner": {
        "id": "semgrep",
        "name": "Semgrep"
      },
      "location": {
        "file": "app/app.py",
        "start_line": 329
      },
      "identifiers": [
        {
          "type": "semgrep_id",
          "name": "bandit.B506",
          "value": "bandit.B506",
          "url": "https://semgrep.dev/r/gitlab.bandit.B506"
        },
        {
          "type": "cwe",
          "name": "CWE-502",
          "value": "502",
          "url": "https://cwe.mitre.org/data/definitions/502.html"
        },
        {
          "type": "owasp",
          "name": "Insecure Deserialization",
          "value": "A8"
        },
        {
          "type": "bandit_test_id",
          "name": "Bandit Test ID B506",
          "value": "B506"
        }
      ],
      "tracking": {
        "type": "source",
        "items": [
          {
            "file": "app/app.py",
            "line_start": 329,
            "line_end": 329,
            "signatures": [
              {
                "algorithm": "scope_offset",
                "value": "app/app.py|yaml_hammer[0]:13"
              }
            ]
          }
        ]
      }
    }
  ],
  "scan": {
    "scanner": {
      "id": "semgrep",
      "name": "Semgrep",
      "url": "https://github.com/returntocorp/semgrep",
      "vendor": {
        "name": "GitLab"
      },
      "version": "0.69.1"
    },
    "type": "sast",
    "start_time": "2021-11-03T20:33:17",
    "end_time": "2021-11-03T20:33:19",
    "status": "success"
  }
}
